EESchema Schematic File Version 4
EELAYER 30 0
EELAYER END
$Descr A4 11693 8268
encoding utf-8
Sheet 1 1
Title ""
Date ""
Rev ""
Comp ""
Comment1 ""
Comment2 ""
Comment3 ""
Comment4 ""
$EndDescr
$Comp
L power:GND #PWR03
U 1 1 5DD47E4E
P 2550 4150
F 0 "#PWR03" H 2550 3900 50  0001 C CNN
F 1 "GND" H 2555 3977 50  0000 C CNN
F 2 "" H 2550 4150 50  0001 C CNN
F 3 "" H 2550 4150 50  0001 C CNN
	1    2550 4150
	1    0    0    -1  
$EndComp
Wire Wire Line
	2550 4150 2550 3850
$Comp
L power:+3.3V #PWR02
U 1 1 5DD57990
P 2550 600
F 0 "#PWR02" H 2550 450 50  0001 C CNN
F 1 "+3.3V" H 2565 773 50  0000 C CNN
F 2 "" H 2550 600 50  0001 C CNN
F 3 "" H 2550 600 50  0001 C CNN
	1    2550 600 
	1    0    0    -1  
$EndComp
$Comp
L SamacSys:SFV24R-4STE1HLF J3
U 1 1 5DD58285
P 8750 1150
F 0 "J3" H 9250 1415 50  0000 C CNN
F 1 "SFV24R-4STE1HLF" H 9250 1324 50  0000 C CNN
F 2 "SamacSys:SFV24R4STE1HLF" H 9600 1250 50  0001 L CNN
F 3 "https://componentsearchengine.com/Datasheets/1/SFV24R-4STE1HLF.pdf" H 9600 1150 50  0001 L CNN
F 4 "FFC & FPC Connectors 24P R/A SMT FFC/FPC 0.5mm CONT SPACING" H 9600 1050 50  0001 L CNN "Description"
F 5 "2" H 9600 950 50  0001 L CNN "Height"
F 6 "649-SFV24R-4STE1HLF" H 9600 850 50  0001 L CNN "Mouser Part Number"
F 7 "https://www.mouser.com/Search/Refine.aspx?Keyword=649-SFV24R-4STE1HLF" H 9600 750 50  0001 L CNN "Mouser Price/Stock"
F 8 "FCI" H 9600 650 50  0001 L CNN "Manufacturer_Name"
F 9 "SFV24R-4STE1HLF" H 9600 550 50  0001 L CNN "Manufacturer_Part_Number"
	1    8750 1150
	1    0    0    -1  
$EndComp
Wire Wire Line
	2550 850  2550 1050
Wire Wire Line
	8750 1250 8400 1250
Wire Wire Line
	8750 1350 8250 1350
Wire Wire Line
	8750 1550 8400 1550
Wire Wire Line
	8750 1650 8400 1650
Wire Wire Line
	8750 1750 8400 1750
Wire Wire Line
	8750 2050 8250 2050
Wire Wire Line
	8750 2250 8400 2250
Wire Wire Line
	9750 1150 9800 1150
Wire Wire Line
	9750 1250 10350 1250
Wire Wire Line
	9750 1550 9800 1550
Wire Wire Line
	9750 1750 9800 1750
Wire Wire Line
	9750 1950 10350 1950
Wire Wire Line
	9750 2050 10350 2050
Wire Wire Line
	9750 2150 10200 2150
Wire Wire Line
	9750 2250 10250 2250
Text Label 9800 1150 0    50   ~ 0
GDR
Text Label 8400 1250 0    50   ~ 0
RESE
Text Label 9800 1450 0    50   ~ 0
BS
Text Label 8400 1550 0    50   ~ 0
SPI_BUSY
Text Label 8400 1650 0    50   ~ 0
SPI_DC
Text Label 8400 1750 0    50   ~ 0
SPI_SCK
$Comp
L power:GND #PWR019
U 1 1 5DD62644
P 7900 2450
F 0 "#PWR019" H 7900 2200 50  0001 C CNN
F 1 "GND" H 7905 2277 50  0000 C CNN
F 2 "" H 7900 2450 50  0001 C CNN
F 3 "" H 7900 2450 50  0001 C CNN
	1    7900 2450
	1    0    0    -1  
$EndComp
Wire Wire Line
	7900 1950 8750 1950
Text Label 8400 2150 0    50   ~ 0
PREVGH
Text Label 8400 2250 0    50   ~ 0
PREVGL
Text Label 9800 1550 0    50   ~ 0
SPI_RST
Text Label 9800 1650 0    50   ~ 0
SPI_CS
Text Label 9800 1750 0    50   ~ 0
SPI_MOSI
$Comp
L power:+3.3V #PWR021
U 1 1 5DD641A6
P 8300 1800
F 0 "#PWR021" H 8300 1650 50  0001 C CNN
F 1 "+3.3V" H 8315 1973 50  0000 C CNN
F 2 "" H 8300 1800 50  0001 C CNN
F 3 "" H 8300 1800 50  0001 C CNN
	1    8300 1800
	1    0    0    -1  
$EndComp
Wire Wire Line
	8300 1850 8300 1800
Wire Wire Line
	10250 1650 10250 1850
NoConn ~ 9750 1350
NoConn ~ 8750 1450
NoConn ~ 8750 1150
$Comp
L Device:C_Small C6
U 1 1 5DD67F23
P 8150 1350
F 0 "C6" V 8379 1350 50  0000 C CNN
F 1 "1uF/50V" V 8288 1350 50  0000 C CNN
F 2 "Capacitors_SMD:C_0603_HandSoldering" H 8150 1350 50  0001 C CNN
F 3 "~" H 8150 1350 50  0001 C CNN
	1    8150 1350
	0    -1   -1   0   
$EndComp
$Comp
L Device:C_Small C13
U 1 1 5DD69EBA
P 10450 1250
F 0 "C13" V 10679 1250 50  0000 C CNN
F 1 "1uF/50V" V 10588 1250 50  0000 C CNN
F 2 "Capacitors_SMD:C_0603_HandSoldering" H 10450 1250 50  0001 C CNN
F 3 "~" H 10450 1250 50  0001 C CNN
	1    10450 1250
	0    -1   -1   0   
$EndComp
$Comp
L power:+3.3V #PWR028
U 1 1 5DD64B89
P 10250 1650
F 0 "#PWR028" H 10250 1500 50  0001 C CNN
F 1 "+3.3V" H 10265 1823 50  0000 C CNN
F 2 "" H 10250 1650 50  0001 C CNN
F 3 "" H 10250 1650 50  0001 C CNN
	1    10250 1650
	1    0    0    -1  
$EndComp
Wire Wire Line
	10700 1250 10550 1250
$Comp
L power:GND #PWR020
U 1 1 5DD7498E
P 8000 1400
F 0 "#PWR020" H 8000 1150 50  0001 C CNN
F 1 "GND" H 8005 1227 50  0000 C CNN
F 2 "" H 8000 1400 50  0001 C CNN
F 3 "" H 8000 1400 50  0001 C CNN
	1    8000 1400
	1    0    0    -1  
$EndComp
Wire Wire Line
	8050 1350 8000 1350
Wire Wire Line
	8000 1350 8000 1400
$Comp
L Device:C_Small C7
U 1 1 5DD767B9
P 8150 1850
F 0 "C7" V 8200 1750 50  0000 C CNN
F 1 "0.1uF/50V" V 8200 2100 50  0000 C CNN
F 2 "Capacitors_SMD:C_0603_HandSoldering" H 8150 1850 50  0001 C CNN
F 3 "~" H 8150 1850 50  0001 C CNN
	1    8150 1850
	0    -1   -1   0   
$EndComp
$Comp
L Device:C_Small C14
U 1 1 5DD770D2
P 10450 1850
F 0 "C14" V 10500 1950 50  0000 C CNN
F 1 "1uF/50V" V 10500 1650 50  0000 C CNN
F 2 "Capacitors_SMD:C_0603_HandSoldering" H 10450 1850 50  0001 C CNN
F 3 "~" H 10450 1850 50  0001 C CNN
	1    10450 1850
	0    -1   -1   0   
$EndComp
$Comp
L Device:C_Small C8
U 1 1 5DD7791C
P 8150 2050
F 0 "C8" V 8200 1950 50  0000 C CNN
F 1 "1uF/50V" V 8200 2250 50  0000 C CNN
F 2 "Capacitors_SMD:C_0603_HandSoldering" H 8150 2050 50  0001 C CNN
F 3 "~" H 8150 2050 50  0001 C CNN
	1    8150 2050
	0    -1   -1   0   
$EndComp
$Comp
L Device:C_Small C15
U 1 1 5DD77CD1
P 10450 2050
F 0 "C15" V 10500 2150 50  0000 C CNN
F 1 "1uF/50V" V 10500 1850 50  0000 C CNN
F 2 "Capacitors_SMD:C_0603_HandSoldering" H 10450 2050 50  0001 C CNN
F 3 "~" H 10450 2050 50  0001 C CNN
	1    10450 2050
	0    -1   -1   0   
$EndComp
$Comp
L Device:C_Small C9
U 1 1 5DD78435
P 8150 2200
F 0 "C9" V 8200 2100 50  0000 C CNN
F 1 "1uF/50V" V 8200 2400 50  0000 C CNN
F 2 "Capacitors_SMD:C_0603_HandSoldering" H 8150 2200 50  0001 C CNN
F 3 "~" H 8150 2200 50  0001 C CNN
	1    8150 2200
	0    -1   -1   0   
$EndComp
$Comp
L Device:C_Small C16
U 1 1 5DD78A40
P 10450 2200
F 0 "C16" V 10500 2300 50  0000 C CNN
F 1 "1uF/50V" V 10500 2000 50  0000 C CNN
F 2 "Capacitors_SMD:C_0603_HandSoldering" H 10450 2200 50  0001 C CNN
F 3 "~" H 10450 2200 50  0001 C CNN
	1    10450 2200
	0    -1   -1   0   
$EndComp
$Comp
L Device:C_Small C10
U 1 1 5DD79176
P 8150 2350
F 0 "C10" V 8200 2250 50  0000 C CNN
F 1 "1uF/50V" V 8200 2550 50  0000 C CNN
F 2 "Capacitors_SMD:C_0603_HandSoldering" H 8150 2350 50  0001 C CNN
F 3 "~" H 8150 2350 50  0001 C CNN
	1    8150 2350
	0    -1   -1   0   
$EndComp
$Comp
L Device:C_Small C17
U 1 1 5DD795CC
P 10450 2350
F 0 "C17" V 10500 2450 50  0000 C CNN
F 1 "1uF/50V" V 10500 2150 50  0000 C CNN
F 2 "Capacitors_SMD:C_0603_HandSoldering" H 10450 2350 50  0001 C CNN
F 3 "~" H 10450 2350 50  0001 C CNN
	1    10450 2350
	0    -1   -1   0   
$EndComp
Wire Wire Line
	9750 1850 10250 1850
Wire Wire Line
	10350 1950 10350 1850
Wire Wire Line
	10200 2150 10200 2200
Wire Wire Line
	10250 2250 10250 2350
Wire Wire Line
	10250 2350 10350 2350
$Comp
L power:GND #PWR030
U 1 1 5DD802E6
P 10700 2400
F 0 "#PWR030" H 10700 2150 50  0001 C CNN
F 1 "GND" H 10705 2227 50  0000 C CNN
F 2 "" H 10700 2400 50  0001 C CNN
F 3 "" H 10700 2400 50  0001 C CNN
	1    10700 2400
	1    0    0    -1  
$EndComp
Wire Wire Line
	10550 2350 10700 2350
Wire Wire Line
	10700 2350 10700 2400
Wire Wire Line
	10550 1850 10700 1850
Wire Wire Line
	10700 1850 10700 2050
Connection ~ 10700 2350
Wire Wire Line
	10550 2050 10700 2050
Connection ~ 10700 2050
Wire Wire Line
	10700 2050 10700 2200
Wire Wire Line
	10550 2200 10700 2200
Connection ~ 10700 2200
Wire Wire Line
	10700 2200 10700 2350
Wire Wire Line
	8350 2200 8250 2200
Wire Wire Line
	8350 2150 8750 2150
Wire Wire Line
	8400 2250 8400 2350
Wire Wire Line
	8400 2350 8250 2350
Wire Wire Line
	7900 1950 7900 2050
Wire Wire Line
	8050 2350 7900 2350
Connection ~ 7900 2350
Wire Wire Line
	7900 2350 7900 2450
Wire Wire Line
	8050 2200 7900 2200
Connection ~ 7900 2200
Wire Wire Line
	7900 2200 7900 2350
Wire Wire Line
	8050 2050 7900 2050
Connection ~ 7900 2050
Wire Wire Line
	7900 2050 7900 2200
$Comp
L SamacSys:MBR0530 D1
U 1 1 5DD8C859
P 6800 1050
F 0 "D1" H 7100 785 50  0000 C CNN
F 1 "MBR0530" H 7100 876 50  0000 C CNN
F 2 "SamacSys:SOD3716X135N" H 6800 1050 50  0001 C CNN
F 3 "https://componentsearchengine.com/Datasheets/1/MBR0530.pdf" H 6800 1050 50  0001 C CNN
F 4 "ON SEMICONDUCTOR - MBR0530 - DIODE, SCHOTTKY, 0.5A, 30V, SOD-123" H 6800 1050 50  0001 C CNN "Description"
F 5 "1.35" H 6800 1050 50  0001 C CNN "Height"
F 6 "ON Semiconductor" H 6800 1050 50  0001 C CNN "Manufacturer_Name"
F 7 "MBR0530" H 6800 1050 50  0001 C CNN "Manufacturer_Part_Number"
F 8 "512-MBR0530" H 6800 1050 50  0001 C CNN "Mouser Part Number"
F 9 "https://www.mouser.com/Search/Refine.aspx?Keyword=512-MBR0530" H 6800 1050 50  0001 C CNN "Mouser Price/Stock"
	1    6800 1050
	-1   0    0    1   
$EndComp
$Comp
L SamacSys:MBR0530 D2
U 1 1 5DD8CF64
P 6200 1400
F 0 "D2" H 6500 1665 50  0000 C CNN
F 1 "MBR0530" H 6500 1574 50  0000 C CNN
F 2 "SamacSys:SOD3716X135N" H 6200 1400 50  0001 C CNN
F 3 "https://componentsearchengine.com/Datasheets/1/MBR0530.pdf" H 6200 1400 50  0001 C CNN
F 4 "ON SEMICONDUCTOR - MBR0530 - DIODE, SCHOTTKY, 0.5A, 30V, SOD-123" H 6200 1400 50  0001 C CNN "Description"
F 5 "1.35" H 6200 1400 50  0001 C CNN "Height"
F 6 "ON Semiconductor" H 6200 1400 50  0001 C CNN "Manufacturer_Name"
F 7 "MBR0530" H 6200 1400 50  0001 C CNN "Manufacturer_Part_Number"
F 8 "512-MBR0530" H 6200 1400 50  0001 C CNN "Mouser Part Number"
F 9 "https://www.mouser.com/Search/Refine.aspx?Keyword=512-MBR0530" H 6200 1400 50  0001 C CNN "Mouser Price/Stock"
	1    6200 1400
	1    0    0    -1  
$EndComp
$Comp
L SamacSys:MBR0530 D3
U 1 1 5DD8D3BB
P 6800 1700
F 0 "D3" H 7100 1435 50  0000 C CNN
F 1 "MBR0530" H 7100 1526 50  0000 C CNN
F 2 "SamacSys:SOD3716X135N" H 6800 1700 50  0001 C CNN
F 3 "https://componentsearchengine.com/Datasheets/1/MBR0530.pdf" H 6800 1700 50  0001 C CNN
F 4 "ON SEMICONDUCTOR - MBR0530 - DIODE, SCHOTTKY, 0.5A, 30V, SOD-123" H 6800 1700 50  0001 C CNN "Description"
F 5 "1.35" H 6800 1700 50  0001 C CNN "Height"
F 6 "ON Semiconductor" H 6800 1700 50  0001 C CNN "Manufacturer_Name"
F 7 "MBR0530" H 6800 1700 50  0001 C CNN "Manufacturer_Part_Number"
F 8 "512-MBR0530" H 6800 1700 50  0001 C CNN "Mouser Part Number"
F 9 "https://www.mouser.com/Search/Refine.aspx?Keyword=512-MBR0530" H 6800 1700 50  0001 C CNN "Mouser Price/Stock"
	1    6800 1700
	-1   0    0    1   
$EndComp
$Comp
L power:GND #PWR015
U 1 1 5DD8D844
P 6900 1050
F 0 "#PWR015" H 6900 800 50  0001 C CNN
F 1 "GND" H 6905 877 50  0000 C CNN
F 2 "" H 6900 1050 50  0001 C CNN
F 3 "" H 6900 1050 50  0001 C CNN
	1    6900 1050
	1    0    0    -1  
$EndComp
$Comp
L Device:C_Small C3
U 1 1 5DD8DC8A
P 6000 1450
F 0 "C3" H 5909 1496 50  0000 R CNN
F 1 "0.1uF/50V" H 5909 1405 50  0000 R CNN
F 2 "Capacitors_SMD:C_0603_HandSoldering" H 6000 1450 50  0001 C CNN
F 3 "~" H 6000 1450 50  0001 C CNN
	1    6000 1450
	1    0    0    -1  
$EndComp
Wire Wire Line
	8250 1850 8300 1850
Wire Wire Line
	8050 1850 7900 1850
Wire Wire Line
	7900 1850 7900 1950
Connection ~ 7900 1950
Connection ~ 8300 1850
Wire Wire Line
	8300 1850 8750 1850
Wire Wire Line
	6800 1050 6900 1050
Wire Wire Line
	6200 1050 6150 1050
Wire Wire Line
	6150 1050 6150 1200
Wire Wire Line
	6150 1400 6200 1400
Wire Wire Line
	6800 1400 7050 1400
Connection ~ 6150 1200
Wire Wire Line
	6150 1200 6150 1400
Wire Wire Line
	6000 1550 6000 1700
Wire Wire Line
	6000 1700 6200 1700
Wire Wire Line
	6800 1700 7050 1700
Wire Wire Line
	6000 1350 6000 1200
Wire Wire Line
	6000 1200 6150 1200
Text Label 7050 1400 2    50   ~ 0
PREVGL
Text Label 7050 1700 2    50   ~ 0
PREVGH
$Comp
L Device:L L1
U 1 1 5DDAAD1F
P 5550 1700
F 0 "L1" V 5461 1700 50  0000 C CNN
F 1 "68uH" V 5370 1700 50  0000 C CNN
F 2 "OPL_Inductor:L0805" H 5550 1700 50  0001 C CNN
F 3 "~" H 5550 1700 50  0001 C CNN
	1    5550 1700
	0    -1   -1   0   
$EndComp
Wire Wire Line
	5700 1700 6000 1700
Connection ~ 6000 1700
$Comp
L power:+3.3V #PWR05
U 1 1 5DDADB30
P 5250 1550
F 0 "#PWR05" H 5250 1400 50  0001 C CNN
F 1 "+3.3V" H 5265 1723 50  0000 C CNN
F 2 "" H 5250 1550 50  0001 C CNN
F 3 "" H 5250 1550 50  0001 C CNN
	1    5250 1550
	1    0    0    -1  
$EndComp
Wire Wire Line
	5400 1700 5250 1700
Wire Wire Line
	5250 1700 5250 1550
$Comp
L Device:C_Small C1
U 1 1 5DDAFCC8
P 5250 1850
F 0 "C1" H 5159 1896 50  0000 R CNN
F 1 "4.7uF" H 5159 1805 50  0000 R CNN
F 2 "Capacitors_SMD:C_0603_HandSoldering" H 5250 1850 50  0001 C CNN
F 3 "~" H 5250 1850 50  0001 C CNN
	1    5250 1850
	1    0    0    -1  
$EndComp
Wire Wire Line
	5250 1700 5250 1750
Connection ~ 5250 1700
$Comp
L power:GND #PWR06
U 1 1 5DDB1B7B
P 5250 2000
F 0 "#PWR06" H 5250 1750 50  0001 C CNN
F 1 "GND" H 5255 1827 50  0000 C CNN
F 2 "" H 5250 2000 50  0001 C CNN
F 3 "" H 5250 2000 50  0001 C CNN
	1    5250 2000
	1    0    0    -1  
$EndComp
Wire Wire Line
	5250 2000 5250 1950
$Comp
L SamacSys:Si1308EDL-T1-GE3 Q1
U 1 1 5DDB76B1
P 5700 2200
F 0 "Q1" H 6130 2346 50  0000 L CNN
F 1 "Si1308EDL" H 6130 2255 50  0000 L CNN
F 2 "SamacSys:SOT65P210X110-3N" H 5800 1800 50  0001 C CNN
F 3 "https://componentsearchengine.com/Datasheets/1/SI1308EDL-T1-GE3.pdf" H 5700 2200 50  0001 C CNN
F 4 "MOSFET N-Ch 30V 1.5A TrenchFET SC70 Vishay Si1308EDL-T1-GE3 N-channel MOSFET Transistor, 1.5 A, 30 V, 3-Pin SC-70" H 5700 2200 50  0001 C CNN "Description"
F 5 "1.1" H 5700 2200 50  0001 C CNN "Height"
F 6 "Vishay" H 5700 2200 50  0001 C CNN "Manufacturer_Name"
F 7 "Si1308EDL-T1-GE3" H 5700 2200 50  0001 C CNN "Manufacturer_Part_Number"
F 8 "78-SI1308EDL-T1-GE3" H 5700 2200 50  0001 C CNN "Mouser Part Number"
F 9 "https://www.mouser.com/Search/Refine.aspx?Keyword=78-SI1308EDL-T1-GE3" H 5700 2200 50  0001 C CNN "Mouser Price/Stock"
	1    5700 2200
	1    0    0    -1  
$EndComp
Wire Wire Line
	6000 1800 6000 1700
$Comp
L Device:R_Small R2
U 1 1 5DDBAD19
P 5550 2400
F 0 "R2" H 5492 2446 50  0000 R CNN
F 1 "10K" H 5492 2355 50  0000 R CNN
F 2 "Resistors_SMD:R_0603_HandSoldering" H 5550 2400 50  0001 C CNN
F 3 "~" H 5550 2400 50  0001 C CNN
	1    5550 2400
	1    0    0    -1  
$EndComp
$Comp
L power:GND #PWR09
U 1 1 5DDBB97E
P 5750 2900
F 0 "#PWR09" H 5750 2650 50  0001 C CNN
F 1 "GND" H 5755 2727 50  0000 C CNN
F 2 "" H 5750 2900 50  0001 C CNN
F 3 "" H 5750 2900 50  0001 C CNN
	1    5750 2900
	1    0    0    -1  
$EndComp
$Comp
L Device:R_Small R3
U 1 1 5DDBBCA3
P 6000 2550
F 0 "R3" H 6059 2596 50  0000 L CNN
F 1 "0.47R" H 6059 2505 50  0000 L CNN
F 2 "Resistors_SMD:R_0603_HandSoldering" H 6000 2550 50  0001 C CNN
F 3 "~" H 6000 2550 50  0001 C CNN
	1    6000 2550
	1    0    0    -1  
$EndComp
Wire Wire Line
	6000 2400 6000 2450
Wire Wire Line
	5700 2200 5550 2200
Wire Wire Line
	5550 2200 5550 2300
Wire Wire Line
	6000 2650 6000 2700
Wire Wire Line
	6000 2700 5750 2700
Connection ~ 5750 2700
Wire Wire Line
	5750 2700 5750 2900
Connection ~ 10700 1850
Wire Wire Line
	10700 1250 10700 1850
Wire Wire Line
	9750 1450 9800 1450
Wire Wire Line
	5750 2700 5550 2700
Wire Wire Line
	5550 2700 5550 2500
Text Label 5550 2200 0    50   ~ 0
GDR
$Comp
L power:+3.3V #PWR016
U 1 1 5DE005B8
P 7450 1350
F 0 "#PWR016" H 7450 1200 50  0001 C CNN
F 1 "+3.3V" H 7465 1523 50  0000 C CNN
F 2 "" H 7450 1350 50  0001 C CNN
F 3 "" H 7450 1350 50  0001 C CNN
	1    7450 1350
	1    0    0    -1  
$EndComp
$Comp
L power:GND #PWR017
U 1 1 5DE009E0
P 7450 2200
F 0 "#PWR017" H 7450 1950 50  0001 C CNN
F 1 "GND" H 7455 2027 50  0000 C CNN
F 2 "" H 7450 2200 50  0001 C CNN
F 3 "" H 7450 2200 50  0001 C CNN
	1    7450 2200
	1    0    0    -1  
$EndComp
$Comp
L Device:R_Small R6
U 1 1 5DE00C06
P 7450 1600
F 0 "R6" H 7509 1646 50  0000 L CNN
F 1 "NC" H 7509 1555 50  0000 L CNN
F 2 "Resistors_SMD:R_0603_HandSoldering" H 7450 1600 50  0001 C CNN
F 3 "~" H 7450 1600 50  0001 C CNN
	1    7450 1600
	1    0    0    -1  
$EndComp
$Comp
L Device:R_Small R7
U 1 1 5DE0103B
P 7450 1950
F 0 "R7" H 7509 1996 50  0000 L CNN
F 1 "0R" H 7509 1905 50  0000 L CNN
F 2 "Resistors_SMD:R_0603_HandSoldering" H 7450 1950 50  0001 C CNN
F 3 "~" H 7450 1950 50  0001 C CNN
	1    7450 1950
	1    0    0    -1  
$EndComp
Wire Wire Line
	7450 1700 7450 1750
Wire Wire Line
	7450 1350 7450 1500
Wire Wire Line
	7450 2050 7450 2200
Wire Wire Line
	7200 1750 7450 1750
Connection ~ 7450 1750
Wire Wire Line
	7450 1750 7450 1850
Text Label 7200 1750 0    50   ~ 0
BS
Wire Notes Line
	4900 3200 11200 3200
Text Notes 7250 3000 2    197  ~ 0
eInk
Wire Notes Line
	4900 4900 500  4900
Text Notes 4700 4700 2    197  ~ 0
ESP32
Wire Wire Line
	3150 2950 3400 2950
Text Label 3400 2950 0    50   ~ 0
SPI_BUSY
Wire Wire Line
	3150 3150 3400 3150
Text Label 3400 3150 0    50   ~ 0
SPI_DC
Wire Wire Line
	3150 1950 3400 1950
Text Label 3150 1950 0    50   ~ 0
SPI_SCK
Wire Wire Line
	3150 3050 3400 3050
Text Label 3400 3050 0    50   ~ 0
SPI_RST
Wire Wire Line
	3150 2150 3400 2150
Text Label 3150 2150 0    50   ~ 0
SPI_CS
Wire Wire Line
	3150 2050 3400 2050
Text Label 3150 2050 0    50   ~ 0
SPI_MOSI
Wire Wire Line
	9800 1650 9750 1650
Text Label 6000 2400 0    50   ~ 0
RESE
$Comp
L Device:R_Small R1
U 1 1 5DEAC586
P 1350 1100
F 0 "R1" H 1409 1146 50  0000 L CNN
F 1 "10K" H 1409 1055 50  0000 L CNN
F 2 "Resistors_SMD:R_0603_HandSoldering" H 1350 1100 50  0001 C CNN
F 3 "~" H 1350 1100 50  0001 C CNN
	1    1350 1100
	1    0    0    -1  
$EndComp
$Comp
L power:+3.3V #PWR01
U 1 1 5DEACC53
P 1350 850
F 0 "#PWR01" H 1350 700 50  0001 C CNN
F 1 "+3.3V" H 1365 1023 50  0000 C CNN
F 2 "" H 1350 850 50  0001 C CNN
F 3 "" H 1350 850 50  0001 C CNN
	1    1350 850 
	1    0    0    -1  
$EndComp
Wire Wire Line
	1350 850  1350 1000
Wire Wire Line
	1350 1200 1350 1250
Wire Wire Line
	1350 1250 1950 1250
$Comp
L Regulator_Linear:MCP1700-3302E_SOT89 U2
U 1 1 5DECD40F
P 5850 6950
F 0 "U2" H 5850 7192 50  0000 C CNN
F 1 "MCP1700-3302E_SOT89" H 5850 7101 50  0000 C CNN
F 2 "TO_SOT_Packages_SMD:SOT-89-3_Handsoldering" H 5850 7150 50  0001 C CNN
F 3 "http://ww1.microchip.com/downloads/en/DeviceDoc/20001826D.pdf" H 5850 6900 50  0001 C CNN
	1    5850 6950
	1    0    0    -1  
$EndComp
Wire Wire Line
	5400 6950 5400 6800
Connection ~ 5400 6950
Wire Wire Line
	5400 6950 5550 6950
Wire Wire Line
	6150 6950 6300 6950
$Comp
L power:+3.3V #PWR013
U 1 1 5DED900E
P 6550 6550
F 0 "#PWR013" H 6550 6400 50  0001 C CNN
F 1 "+3.3V" H 6565 6723 50  0000 C CNN
F 2 "" H 6550 6550 50  0001 C CNN
F 3 "" H 6550 6550 50  0001 C CNN
	1    6550 6550
	1    0    0    -1  
$EndComp
Wire Wire Line
	6550 6950 6550 6850
Wire Wire Line
	5850 7250 5850 7300
$Comp
L power:GND #PWR010
U 1 1 5DEE01BC
P 5850 7400
F 0 "#PWR010" H 5850 7150 50  0001 C CNN
F 1 "GND" H 5855 7227 50  0000 C CNN
F 2 "" H 5850 7400 50  0001 C CNN
F 3 "" H 5850 7400 50  0001 C CNN
	1    5850 7400
	1    0    0    -1  
$EndComp
$Comp
L power:GND #PWR011
U 1 1 5DEE0613
P 5900 4450
F 0 "#PWR011" H 5900 4200 50  0001 C CNN
F 1 "GND" H 5905 4277 50  0000 C CNN
F 2 "" H 5900 4450 50  0001 C CNN
F 3 "" H 5900 4450 50  0001 C CNN
	1    5900 4450
	1    0    0    -1  
$EndComp
Wire Wire Line
	5750 4300 5900 4300
Wire Wire Line
	5900 4300 5900 4450
$Comp
L Device:C_Small C4
U 1 1 5DEE4297
P 6300 7200
F 0 "C4" H 6392 7246 50  0000 L CNN
F 1 "1uF" H 6392 7155 50  0000 L CNN
F 2 "Capacitors_SMD:C_0603_HandSoldering" H 6300 7200 50  0001 C CNN
F 3 "~" H 6300 7200 50  0001 C CNN
	1    6300 7200
	1    0    0    -1  
$EndComp
$Comp
L Device:C_Small C2
U 1 1 5DEE4A51
P 5400 7200
F 0 "C2" H 5492 7246 50  0000 L CNN
F 1 "1uF" H 5492 7155 50  0000 L CNN
F 2 "Capacitors_SMD:C_0603_HandSoldering" H 5400 7200 50  0001 C CNN
F 3 "~" H 5400 7200 50  0001 C CNN
	1    5400 7200
	1    0    0    -1  
$EndComp
Wire Wire Line
	5400 6950 5400 7100
Wire Wire Line
	5400 7300 5850 7300
Connection ~ 5850 7300
Wire Wire Line
	5850 7300 5850 7400
Wire Wire Line
	6300 7300 5850 7300
Wire Wire Line
	6300 7100 6300 6950
Connection ~ 6300 6950
Wire Wire Line
	6300 6950 6550 6950
Wire Wire Line
	5900 4200 5800 4200
$Comp
L Battery_Management:BQ27441DRZR-G1A U4
U 1 1 5DF15F42
P 10000 5350
F 0 "U4" H 10000 6017 50  0000 C CNN
F 1 "BQ27441DRZR-G1A" H 10000 5926 50  0000 C CNN
F 2 "Package_SON:Texas_S-PDSO-N12" H 10250 4800 50  0001 L CNN
F 3 "http://www.ti.com/lit/ds/symlink/bq27441-g1.pdf" H 10200 5550 50  0001 C CNN
	1    10000 5350
	1    0    0    -1  
$EndComp
Wire Notes Line
	4900 500  4900 7750
Text Notes 5900 3550 2    197  ~ 0
Power
$Comp
L power:VCC #PWR022
U 1 1 5DF6AD03
P 8300 4100
F 0 "#PWR022" H 8300 3950 50  0001 C CNN
F 1 "VCC" H 8317 4273 50  0000 C CNN
F 2 "" H 8300 4100 50  0001 C CNN
F 3 "" H 8300 4100 50  0001 C CNN
	1    8300 4100
	1    0    0    -1  
$EndComp
$Comp
L power:VCC #PWR07
U 1 1 5DF6B90C
P 5400 6500
F 0 "#PWR07" H 5400 6350 50  0001 C CNN
F 1 "VCC" H 5417 6673 50  0000 C CNN
F 2 "" H 5400 6500 50  0001 C CNN
F 3 "" H 5400 6500 50  0001 C CNN
	1    5400 6500
	1    0    0    -1  
$EndComp
Wire Wire Line
	8300 4100 8300 4250
Wire Wire Line
	8300 4350 8100 4350
Wire Wire Line
	8100 4250 8300 4250
Connection ~ 8300 4250
Wire Wire Line
	8300 4250 8300 4350
$Comp
L power:+BATT #PWR023
U 1 1 5DF7433E
P 8650 4550
F 0 "#PWR023" H 8650 4400 50  0001 C CNN
F 1 "+BATT" H 8665 4723 50  0000 C CNN
F 2 "" H 8650 4550 50  0001 C CNN
F 3 "" H 8650 4550 50  0001 C CNN
	1    8650 4550
	1    0    0    -1  
$EndComp
Wire Wire Line
	8100 4550 8200 4550
Wire Wire Line
	8100 4650 8200 4650
Wire Wire Line
	8200 4650 8200 4550
Connection ~ 8200 4550
Wire Wire Line
	8200 4550 8300 4550
NoConn ~ 8100 4750
$Comp
L Device:C_Small C12
U 1 1 5E00D8E3
P 8600 4250
F 0 "C12" V 8371 4250 50  0000 C CNN
F 1 "4.7uF" V 8462 4250 50  0000 C CNN
F 2 "Capacitors_SMD:C_0603_HandSoldering" H 8600 4250 50  0001 C CNN
F 3 "~" H 8600 4250 50  0001 C CNN
	1    8600 4250
	0    1    1    0   
$EndComp
Wire Wire Line
	8300 4250 8500 4250
Wire Wire Line
	8700 4250 8800 4250
Wire Wire Line
	8800 4250 8800 4350
$Comp
L power:GND #PWR025
U 1 1 5E01AE87
P 8800 4350
F 0 "#PWR025" H 8800 4100 50  0001 C CNN
F 1 "GND" H 8805 4177 50  0000 C CNN
F 2 "" H 8800 4350 50  0001 C CNN
F 3 "" H 8800 4350 50  0001 C CNN
	1    8800 4350
	1    0    0    -1  
$EndComp
$Comp
L Connector:USB_B_Micro J2
U 1 1 5E01BC04
P 5600 5500
F 0 "J2" H 5657 5967 50  0000 C CNN
F 1 "USB_B_Micro" H 5657 5876 50  0000 C CNN
F 2 "Connect:USB_Micro-B" H 5750 5450 50  0001 C CNN
F 3 "~" H 5750 5450 50  0001 C CNN
	1    5600 5500
	1    0    0    -1  
$EndComp
Wire Wire Line
	3400 2850 3150 2850
Wire Wire Line
	3400 3550 3150 3550
Text Label 3400 2850 0    50   ~ 0
PGOOD
Text Label 3400 3550 0    50   ~ 0
CHG
NoConn ~ 5900 5500
NoConn ~ 5900 5600
NoConn ~ 5900 5700
$Comp
L power:GND #PWR08
U 1 1 5E04EE77
P 5600 6050
F 0 "#PWR08" H 5600 5800 50  0001 C CNN
F 1 "GND" H 5605 5877 50  0000 C CNN
F 2 "" H 5600 6050 50  0001 C CNN
F 3 "" H 5600 6050 50  0001 C CNN
	1    5600 6050
	1    0    0    -1  
$EndComp
$Comp
L power:+5V #PWR012
U 1 1 5E04F0E1
P 6050 5150
F 0 "#PWR012" H 6050 5000 50  0001 C CNN
F 1 "+5V" H 6065 5323 50  0000 C CNN
F 2 "" H 6050 5150 50  0001 C CNN
F 3 "" H 6050 5150 50  0001 C CNN
	1    6050 5150
	1    0    0    -1  
$EndComp
Wire Wire Line
	5900 5300 6050 5300
Wire Wire Line
	6050 5300 6050 5150
Wire Wire Line
	5600 5900 5600 6050
$Comp
L power:+BATT #PWR026
U 1 1 5E05D915
P 9000 5300
F 0 "#PWR026" H 9000 5150 50  0001 C CNN
F 1 "+BATT" H 9015 5473 50  0000 C CNN
F 2 "" H 9000 5300 50  0001 C CNN
F 3 "" H 9000 5300 50  0001 C CNN
	1    9000 5300
	1    0    0    -1  
$EndComp
Text Label 5900 4200 0    50   ~ 0
BATTERY_IN
Text Label 9300 4950 2    50   ~ 0
BATTERY_IN
$Comp
L power:GND #PWR027
U 1 1 5E080E22
P 9950 6150
F 0 "#PWR027" H 9950 5900 50  0001 C CNN
F 1 "GND" H 9955 5977 50  0000 C CNN
F 2 "" H 9950 6150 50  0001 C CNN
F 3 "" H 9950 6150 50  0001 C CNN
	1    9950 6150
	1    0    0    -1  
$EndComp
Wire Wire Line
	9900 5950 9900 6150
Wire Wire Line
	9900 6150 9950 6150
Wire Wire Line
	10000 5950 10000 6150
Wire Wire Line
	10000 6150 9950 6150
Connection ~ 9950 6150
Wire Wire Line
	9400 5450 9000 5450
Wire Wire Line
	9000 5450 9000 5300
$Comp
L SamacSys:ERJ-2LWFR010X R8
U 1 1 5E097757
P 8900 5450
F 0 "R8" V 9204 5538 50  0000 L CNN
F 1 "0.01R 1%" V 9295 5538 50  0000 L CNN
F 2 "SamacSys:RESC1005X45N" H 8900 5450 50  0001 C CNN
F 3 "https://componentsearchengine.com/Datasheets/1/ERJ-2LWFR010X.pdf" H 8900 5450 50  0001 C CNN
F 4 "Current Sense Resistors - SMD 0402 10mOhms 1% Curr Sens AEC-Q200" H 8900 5450 50  0001 C CNN "Description"
F 5 "0.45" H 8900 5450 50  0001 C CNN "Height"
F 6 "Panasonic" H 8900 5450 50  0001 C CNN "Manufacturer_Name"
F 7 "ERJ-2LWFR010X" H 8900 5450 50  0001 C CNN "Manufacturer_Part_Number"
F 8 "667-ERJ-2LWFR010X" H 8900 5450 50  0001 C CNN "Mouser Part Number"
F 9 "https://www.mouser.com/Search/Refine.aspx?Keyword=667-ERJ-2LWFR010X" H 8900 5450 50  0001 C CNN "Mouser Price/Stock"
	1    8900 5450
	0    1    1    0   
$EndComp
Wire Wire Line
	8900 5450 9000 5450
Connection ~ 9000 5450
Wire Wire Line
	8650 4950 9400 4950
$Comp
L Device:C_Small C11
U 1 1 5E0CDA0D
P 8500 5100
F 0 "C11" H 8592 5146 50  0000 L CNN
F 1 "1uF" H 8592 5055 50  0000 L CNN
F 2 "Capacitors_SMD:C_0603_HandSoldering" H 8500 5100 50  0001 C CNN
F 3 "~" H 8500 5100 50  0001 C CNN
	1    8500 5100
	1    0    0    -1  
$EndComp
Wire Wire Line
	8650 4950 8500 4950
Wire Wire Line
	8500 4950 8500 5000
Connection ~ 8650 4950
$Comp
L power:GND #PWR024
U 1 1 5E0D6423
P 8500 5300
F 0 "#PWR024" H 8500 5050 50  0001 C CNN
F 1 "GND" H 8505 5127 50  0000 C CNN
F 2 "" H 8500 5300 50  0001 C CNN
F 3 "" H 8500 5300 50  0001 C CNN
	1    8500 5300
	1    0    0    -1  
$EndComp
Wire Wire Line
	8500 5200 8500 5300
$Comp
L Device:C_Small C18
U 1 1 5E0DE7A7
P 11050 4850
F 0 "C18" H 10958 4804 50  0000 R CNN
F 1 "4.7uF" H 10958 4895 50  0000 R CNN
F 2 "Capacitors_SMD:C_0603_HandSoldering" H 11050 4850 50  0001 C CNN
F 3 "~" H 11050 4850 50  0001 C CNN
	1    11050 4850
	-1   0    0    1   
$EndComp
$Comp
L power:GND #PWR031
U 1 1 5E0DF339
P 11050 5450
F 0 "#PWR031" H 11050 5200 50  0001 C CNN
F 1 "GND" H 11055 5277 50  0000 C CNN
F 2 "" H 11050 5450 50  0001 C CNN
F 3 "" H 11050 5450 50  0001 C CNN
	1    11050 5450
	1    0    0    -1  
$EndComp
Wire Wire Line
	11050 4950 11050 5450
Wire Wire Line
	10600 5050 10600 4750
Wire Wire Line
	10600 4750 11050 4750
$Comp
L power:+1V8 #PWR029
U 1 1 5E0F06B6
P 10600 4700
F 0 "#PWR029" H 10600 4550 50  0001 C CNN
F 1 "+1V8" H 10615 4873 50  0000 C CNN
F 2 "" H 10600 4700 50  0001 C CNN
F 3 "" H 10600 4700 50  0001 C CNN
	1    10600 4700
	1    0    0    -1  
$EndComp
Wire Wire Line
	10600 4700 10600 4750
Connection ~ 10600 4750
Text Label 10750 5350 0    50   ~ 0
GPOUT_BATT-LOW
Wire Wire Line
	3200 1650 3150 1650
Text Label 3200 1650 0    50   ~ 0
GPOUT_BATT-LOW
$Comp
L Device:R_Small R10
U 1 1 5E12C5DE
P 10750 5150
F 0 "R10" H 10691 5104 50  0000 R CNN
F 1 "10K" H 10691 5195 50  0000 R CNN
F 2 "Resistors_SMD:R_0603_HandSoldering" H 10750 5150 50  0001 C CNN
F 3 "~" H 10750 5150 50  0001 C CNN
	1    10750 5150
	-1   0    0    1   
$EndComp
Wire Wire Line
	10750 5350 10750 5250
Wire Wire Line
	10750 5050 10750 4900
Text Label 4250 1200 0    50   ~ 0
V_PU
$Comp
L power:+3.3V #PWR04
U 1 1 5E157F7A
P 4250 1050
F 0 "#PWR04" H 4250 900 50  0001 C CNN
F 1 "+3.3V" H 4265 1223 50  0000 C CNN
F 2 "" H 4250 1050 50  0001 C CNN
F 3 "" H 4250 1050 50  0001 C CNN
	1    4250 1050
	1    0    0    -1  
$EndComp
Wire Wire Line
	4250 1050 4250 1200
Text Label 9400 5150 2    50   ~ 0
I2C_SDA
Text Label 9400 5250 2    50   ~ 0
I2C_SCL
Text Label 3150 2250 0    50   ~ 0
I2C_SDA
Text Label 3150 2350 0    50   ~ 0
I2C_SCL
Wire Wire Line
	10750 5350 10600 5350
Text Label 10750 4900 0    50   ~ 0
V_PU
$Comp
L Device:R_Small R9
U 1 1 5E1AC798
P 9200 5950
F 0 "R9" H 9141 5904 50  0000 R CNN
F 1 "10K" H 9141 5995 50  0000 R CNN
F 2 "Resistors_SMD:R_0603_HandSoldering" H 9200 5950 50  0001 C CNN
F 3 "~" H 9200 5950 50  0001 C CNN
	1    9200 5950
	-1   0    0    1   
$EndComp
Wire Wire Line
	9200 6050 9200 6150
Wire Wire Line
	9200 6150 9900 6150
Connection ~ 9900 6150
Wire Wire Line
	9200 5850 9200 5750
Wire Wire Line
	9200 5750 9400 5750
Wire Wire Line
	9100 6250 9100 5550
Wire Wire Line
	8650 6250 8900 6250
Wire Wire Line
	9100 5550 9400 5550
Wire Wire Line
	8900 6150 8900 6250
Connection ~ 8900 6250
Wire Wire Line
	8900 6250 9100 6250
Wire Wire Line
	8650 4950 8650 6250
NoConn ~ 5500 5900
NoConn ~ 1950 2450
NoConn ~ 1950 1550
NoConn ~ 1950 1450
NoConn ~ 1950 2550
NoConn ~ 1950 2650
NoConn ~ 1950 2750
NoConn ~ 1950 2850
NoConn ~ 1950 2950
NoConn ~ 3150 2650
NoConn ~ 3150 2550
NoConn ~ 3150 2450
NoConn ~ 3150 1850
NoConn ~ 3150 1750
NoConn ~ 3150 1450
$Comp
L RF_Module:ESP32-WROOM-32 U1
U 1 1 5DD45BD4
P 2550 2450
F 0 "U1" H 2550 4031 50  0000 C CNN
F 1 "ESP32-WROOM-32" H 2550 3940 50  0000 C CNN
F 2 "local:ESP32-WROOM-32" H 2550 950 50  0001 C CNN
F 3 "https://www.espressif.com/sites/default/files/documentation/esp32-wroom-32_datasheet_en.pdf" H 2250 2500 50  0001 C CNN
	1    2550 2450
	1    0    0    -1  
$EndComp
NoConn ~ 8750 2350
NoConn ~ 9750 2350
$Comp
L power:PWR_FLAG #FLG0101
U 1 1 5E54D89A
P 5800 4200
F 0 "#FLG0101" H 5800 4275 50  0001 C CNN
F 1 "PWR_FLAG" H 5800 4373 50  0000 C CNN
F 2 "" H 5800 4200 50  0001 C CNN
F 3 "~" H 5800 4200 50  0001 C CNN
	1    5800 4200
	1    0    0    -1  
$EndComp
Connection ~ 5800 4200
Wire Wire Line
	5800 4200 5750 4200
Wire Wire Line
	3150 3250 3400 3250
Wire Wire Line
	3150 3350 3400 3350
Wire Wire Line
	3150 2750 3400 2750
Text Label 3400 3250 0    50   ~ 0
EN1
Text Label 3400 3350 0    50   ~ 0
EN2
Text Label 3400 2750 0    50   ~ 0
CE
$Comp
L Device:R_Small R13
U 1 1 5DE8A417
P 3750 2250
F 0 "R13" H 3692 2296 50  0000 R CNN
F 1 "5.1K" H 3692 2205 50  0000 R CNN
F 2 "Resistors_SMD:R_0603_HandSoldering" H 3750 2250 50  0001 C CNN
F 3 "~" H 3750 2250 50  0001 C CNN
	1    3750 2250
	0    1    1    0   
$EndComp
$Comp
L Device:R_Small R14
U 1 1 5DE8A8DF
P 3750 2350
F 0 "R14" H 3692 2396 50  0000 R CNN
F 1 "5.1K" H 3692 2305 50  0000 R CNN
F 2 "Resistors_SMD:R_0603_HandSoldering" H 3750 2350 50  0001 C CNN
F 3 "~" H 3750 2350 50  0001 C CNN
	1    3750 2350
	0    1    1    0   
$EndComp
$Comp
L power:+3.3V #PWR0101
U 1 1 5DEA9B40
P 4000 2050
F 0 "#PWR0101" H 4000 1900 50  0001 C CNN
F 1 "+3.3V" H 4015 2223 50  0000 C CNN
F 2 "" H 4000 2050 50  0001 C CNN
F 3 "" H 4000 2050 50  0001 C CNN
	1    4000 2050
	1    0    0    -1  
$EndComp
Wire Wire Line
	4000 2250 3850 2250
Wire Wire Line
	4000 2350 3850 2350
Wire Wire Line
	3150 2250 3650 2250
Wire Wire Line
	3150 2350 3650 2350
Wire Wire Line
	4000 2350 4000 2250
Connection ~ 4000 2250
Wire Wire Line
	4000 2250 4000 2050
$Comp
L Connector_Generic:Conn_01x02 J1
U 1 1 5DEC03E2
P 5550 4200
F 0 "J1" H 5468 4417 50  0000 C CNN
F 1 "Conn_01x02" H 5468 4326 50  0000 C CNN
F 2 "Connectors_JST:JST_PH_S2B-PH-SM4-TB_02x2.00mm_Angled" H 5550 4200 50  0001 C CNN
F 3 "~" H 5550 4200 50  0001 C CNN
F 4 "https://www.digikey.com/product-detail/en/jst-sales-america-inc/S2B-PH-SM4-TB-LF-SN/455-1749-1-ND/926846" H 5550 4200 50  0001 C CNN "DigiKey"
	1    5550 4200
	-1   0    0    -1  
$EndComp
Wire Wire Line
	3750 3450 3750 3500
Connection ~ 3750 3450
Wire Wire Line
	3750 3450 3150 3450
Wire Wire Line
	3750 3400 3750 3450
Wire Wire Line
	3750 3750 3750 3700
$Comp
L power:GND #PWR0103
U 1 1 5DF8AE45
P 3750 3750
F 0 "#PWR0103" H 3750 3500 50  0001 C CNN
F 1 "GND" H 3755 3577 50  0000 C CNN
F 2 "" H 3750 3750 50  0001 C CNN
F 3 "" H 3750 3750 50  0001 C CNN
	1    3750 3750
	1    0    0    -1  
$EndComp
$Comp
L Device:R_Small R12
U 1 1 5DF8AC1D
P 3750 3600
F 0 "R12" H 3692 3646 50  0000 R CNN
F 1 "?" H 3692 3555 50  0000 R CNN
F 2 "Resistors_SMD:R_0603_HandSoldering" H 3750 3600 50  0001 C CNN
F 3 "~" H 3750 3600 50  0001 C CNN
	1    3750 3600
	-1   0    0    1   
$EndComp
$Comp
L Device:R_Small R11
U 1 1 5DF8A447
P 3750 3300
F 0 "R11" H 3692 3346 50  0000 R CNN
F 1 "?" H 3692 3255 50  0000 R CNN
F 2 "Resistors_SMD:R_0603_HandSoldering" H 3750 3300 50  0001 C CNN
F 3 "~" H 3750 3300 50  0001 C CNN
	1    3750 3300
	-1   0    0    1   
$EndComp
$Comp
L power:+5V #PWR0102
U 1 1 5DF8A051
P 3750 3200
F 0 "#PWR0102" H 3750 3050 50  0001 C CNN
F 1 "+5V" H 3765 3373 50  0000 C CNN
F 2 "" H 3750 3200 50  0001 C CNN
F 3 "" H 3750 3200 50  0001 C CNN
	1    3750 3200
	1    0    0    -1  
$EndComp
Text Label 3400 3450 0    50   ~ 0
EXT_POWER
Text Label 8100 5050 0    50   ~ 0
CHG
Text Label 8100 4950 0    50   ~ 0
PGOOD
Text Label 6700 4450 0    50   ~ 0
CE
Wire Wire Line
	6900 4450 6700 4450
Wire Wire Line
	6600 4250 6600 4550
Text Label 6700 4750 0    50   ~ 0
EN2
Text Label 6700 4650 0    50   ~ 0
EN1
Wire Wire Line
	6900 4750 6700 4750
Wire Wire Line
	6900 4650 6700 4650
Wire Wire Line
	6600 4550 6600 5450
Wire Wire Line
	7500 3950 7500 4050
Connection ~ 7500 3950
Wire Wire Line
	7100 3950 7500 3950
Connection ~ 6600 4250
Wire Wire Line
	6600 3950 6600 4250
Wire Wire Line
	6900 3950 6600 3950
$Comp
L Device:C_Small C5
U 1 1 5DFFA1E6
P 7000 3950
F 0 "C5" V 6771 3950 50  0000 C CNN
F 1 "1uF" V 6862 3950 50  0000 C CNN
F 2 "Capacitors_SMD:C_0603_HandSoldering" H 7000 3950 50  0001 C CNN
F 3 "~" H 7000 3950 50  0001 C CNN
	1    7000 3950
	0    1    1    0   
$EndComp
Wire Wire Line
	7400 5450 6900 5450
Connection ~ 7400 5450
Wire Wire Line
	7400 5250 7400 5450
Connection ~ 6900 5450
Wire Wire Line
	7500 5450 7400 5450
Wire Wire Line
	7500 5250 7500 5450
Wire Wire Line
	7500 3750 7500 3950
$Comp
L power:+5V #PWR018
U 1 1 5DFE82AA
P 7500 3450
F 0 "#PWR018" H 7500 3300 50  0001 C CNN
F 1 "+5V" H 7515 3623 50  0000 C CNN
F 2 "" H 7500 3450 50  0001 C CNN
F 3 "" H 7500 3450 50  0001 C CNN
	1    7500 3450
	1    0    0    -1  
$EndComp
Wire Wire Line
	6900 4250 6600 4250
Wire Wire Line
	6750 5450 6600 5450
Connection ~ 6750 5450
Wire Wire Line
	6750 5350 6750 5450
Wire Wire Line
	6600 5450 6600 5500
Connection ~ 6600 5450
Wire Wire Line
	6900 5450 6750 5450
Wire Wire Line
	6900 5350 6900 5450
$Comp
L Device:R_Small R5
U 1 1 5DFA0556
P 6900 5250
F 0 "R5" H 6959 5296 50  0000 L CNN
F 1 "TBD" H 6959 5205 50  0000 L CNN
F 2 "Resistors_SMD:R_0603_HandSoldering" H 6900 5250 50  0001 C CNN
F 3 "~" H 6900 5250 50  0001 C CNN
	1    6900 5250
	1    0    0    -1  
$EndComp
$Comp
L Device:R_Small R4
U 1 1 5DF9F83C
P 6750 5250
F 0 "R4" H 6809 5296 50  0000 L CNN
F 1 "TBD" H 6809 5205 50  0000 L CNN
F 2 "Resistors_SMD:R_0603_HandSoldering" H 6750 5250 50  0001 C CNN
F 3 "~" H 6750 5250 50  0001 C CNN
	1    6750 5250
	1    0    0    -1  
$EndComp
Wire Wire Line
	6750 4950 6750 5150
Wire Wire Line
	6900 4950 6750 4950
Wire Wire Line
	6900 5050 6900 5150
Connection ~ 6600 4550
$Comp
L power:GND #PWR014
U 1 1 5DF8FBA8
P 6600 5500
F 0 "#PWR014" H 6600 5250 50  0001 C CNN
F 1 "GND" H 6605 5327 50  0000 C CNN
F 2 "" H 6600 5500 50  0001 C CNN
F 3 "" H 6600 5500 50  0001 C CNN
	1    6600 5500
	1    0    0    -1  
$EndComp
Wire Wire Line
	6900 4550 6600 4550
$Comp
L Battery_Management:BQ24075 U3
U 1 1 5DEFBB14
P 7500 4650
F 0 "U3" H 7500 5431 50  0000 C CNN
F 1 "BQ24075" H 7500 5340 50  0000 C CNN
F 2 "SamacSys:QFN50P300X300X100-17N-D" H 7750 4100 50  0001 L CNN
F 3 "http://www.ti.com/lit/ds/symlink/bq24075.pdf" H 7700 4850 50  0001 C CNN
	1    7500 4650
	1    0    0    -1  
$EndComp
Text Label 6900 5050 2    50   ~ 0
ISET
Text Label 6750 4950 0    50   ~ 0
ILIM
$Comp
L Device:R_Small R20
U 1 1 5DE8C2DD
P 8400 4550
F 0 "R20" H 8341 4504 50  0000 R CNN
F 1 "0R" H 8341 4595 50  0000 R CNN
F 2 "Resistors_SMD:R_0603_HandSoldering" H 8400 4550 50  0001 C CNN
F 3 "~" H 8400 4550 50  0001 C CNN
	1    8400 4550
	0    -1   -1   0   
$EndComp
Wire Wire Line
	8500 4550 8650 4550
$Comp
L Device:R_Small R18
U 1 1 5DEA2B4D
P 7500 3650
F 0 "R18" H 7441 3604 50  0000 R CNN
F 1 "0R" H 7441 3695 50  0000 R CNN
F 2 "Resistors_SMD:R_0603_HandSoldering" H 7500 3650 50  0001 C CNN
F 3 "~" H 7500 3650 50  0001 C CNN
	1    7500 3650
	1    0    0    -1  
$EndComp
Wire Wire Line
	7500 3450 7500 3550
$Comp
L Device:R_Small R16
U 1 1 5DEC5368
P 5400 6700
F 0 "R16" H 5341 6654 50  0000 R CNN
F 1 "0R" H 5341 6745 50  0000 R CNN
F 2 "Resistors_SMD:R_0603_HandSoldering" H 5400 6700 50  0001 C CNN
F 3 "~" H 5400 6700 50  0001 C CNN
	1    5400 6700
	1    0    0    -1  
$EndComp
$Comp
L Device:R_Small R17
U 1 1 5DEC5921
P 6550 6750
F 0 "R17" H 6491 6704 50  0000 R CNN
F 1 "0R" H 6491 6795 50  0000 R CNN
F 2 "Resistors_SMD:R_0603_HandSoldering" H 6550 6750 50  0001 C CNN
F 3 "~" H 6550 6750 50  0001 C CNN
	1    6550 6750
	1    0    0    -1  
$EndComp
Wire Wire Line
	6550 6550 6550 6650
Wire Wire Line
	5400 6500 5400 6600
Wire Wire Line
	2550 600  2550 650 
$Comp
L Mechanical:MountingHole H1
U 1 1 5DF99E21
P 1100 5200
F 0 "H1" H 1200 5246 50  0000 L CNN
F 1 "MountingHole" H 1200 5155 50  0000 L CNN
F 2 "Mounting_Holes:MountingHole_3.2mm_M3" H 1100 5200 50  0001 C CNN
F 3 "~" H 1100 5200 50  0001 C CNN
	1    1100 5200
	1    0    0    -1  
$EndComp
$Comp
L Mechanical:MountingHole H2
U 1 1 5DF9B469
P 2200 5200
F 0 "H2" H 2300 5246 50  0000 L CNN
F 1 "MountingHole" H 2300 5155 50  0000 L CNN
F 2 "Mounting_Holes:MountingHole_3.2mm_M3" H 2200 5200 50  0001 C CNN
F 3 "~" H 2200 5200 50  0001 C CNN
	1    2200 5200
	1    0    0    -1  
$EndComp
$Comp
L Device:Q_NPN_BCE Q2
U 1 1 5E01319E
P 2400 6300
F 0 "Q2" H 2591 6346 50  0000 L CNN
F 1 "Q_NPN_BCE" H 2591 6255 50  0000 L CNN
F 2 "SamacSys:SOT65P210X110-3N" H 2600 6400 50  0001 C CNN
F 3 "~" H 2400 6300 50  0001 C CNN
	1    2400 6300
	1    0    0    -1  
$EndComp
$Comp
L Device:Q_NPN_BCE Q3
U 1 1 5E0136EA
P 2400 7050
F 0 "Q3" H 2591 7004 50  0000 L CNN
F 1 "Q_NPN_BCE" H 2591 7095 50  0000 L CNN
F 2 "SamacSys:SOT65P210X110-3N" H 2600 7150 50  0001 C CNN
F 3 "~" H 2400 7050 50  0001 C CNN
	1    2400 7050
	1    0    0    1   
$EndComp
Wire Wire Line
	2850 5950 2500 5950
Wire Wire Line
	2500 5950 2500 6100
Wire Wire Line
	2500 7250 2500 7400
Wire Wire Line
	2500 6850 2500 6750
Wire Wire Line
	2500 6750 1500 6750
Wire Wire Line
	1500 6750 1500 6300
Wire Wire Line
	1500 6300 1150 6300
Wire Wire Line
	2500 6500 1600 6500
Wire Wire Line
	1600 6500 1600 7050
Wire Wire Line
	1600 7050 1150 7050
$Comp
L Device:R_Small R19
U 1 1 5E05ED40
P 1850 6300
F 0 "R19" H 1791 6254 50  0000 R CNN
F 1 "10K" H 1791 6345 50  0000 R CNN
F 2 "Resistors_SMD:R_0603_HandSoldering" H 1850 6300 50  0001 C CNN
F 3 "~" H 1850 6300 50  0001 C CNN
	1    1850 6300
	0    1    1    0   
$EndComp
$Comp
L Device:R_Small R21
U 1 1 5E05F608
P 1850 7050
F 0 "R21" H 1791 7004 50  0000 R CNN
F 1 "10K" H 1791 7095 50  0000 R CNN
F 2 "Resistors_SMD:R_0603_HandSoldering" H 1850 7050 50  0001 C CNN
F 3 "~" H 1850 7050 50  0001 C CNN
	1    1850 7050
	0    1    1    0   
$EndComp
Wire Wire Line
	1600 7050 1750 7050
Connection ~ 1600 7050
Wire Wire Line
	1950 7050 2200 7050
Wire Wire Line
	2500 7400 2800 7400
Wire Wire Line
	2200 6300 1950 6300
Wire Wire Line
	1750 6300 1500 6300
Connection ~ 1500 6300
Text Label 2850 5950 0    50   ~ 0
EN
Text Label 2800 7400 0    50   ~ 0
IO0
Text Label 1150 6300 0    50   ~ 0
DTR
Text Label 1150 7050 0    50   ~ 0
RTS
$Comp
L Device:C_Small C19
U 1 1 5E0C2F51
P 1350 1450
F 0 "C19" H 1259 1496 50  0000 R CNN
F 1 "0.1uF" H 1259 1405 50  0000 R CNN
F 2 "Capacitors_SMD:C_0603_HandSoldering" H 1350 1450 50  0001 C CNN
F 3 "~" H 1350 1450 50  0001 C CNN
	1    1350 1450
	1    0    0    -1  
$EndComp
Wire Wire Line
	1350 1250 1350 1350
Connection ~ 1350 1250
Wire Wire Line
	1350 1550 1350 1750
$Comp
L power:GND #PWR0104
U 1 1 5E0FAE3A
P 1350 1750
F 0 "#PWR0104" H 1350 1500 50  0001 C CNN
F 1 "GND" H 1355 1577 50  0000 C CNN
F 2 "" H 1350 1750 50  0001 C CNN
F 3 "" H 1350 1750 50  0001 C CNN
	1    1350 1750
	1    0    0    -1  
$EndComp
$Comp
L power:GND #PWR0105
U 1 1 5E0FEB89
P 4100 5750
F 0 "#PWR0105" H 4100 5500 50  0001 C CNN
F 1 "GND" H 4105 5577 50  0000 C CNN
F 2 "" H 4100 5750 50  0001 C CNN
F 3 "" H 4100 5750 50  0001 C CNN
	1    4100 5750
	1    0    0    -1  
$EndComp
Wire Wire Line
	4100 5750 4100 5650
Wire Wire Line
	4100 5650 4300 5650
Wire Wire Line
	4300 5550 4100 5550
Wire Wire Line
	4300 5450 4100 5450
Wire Wire Line
	4300 5350 4100 5350
Wire Wire Line
	4300 5250 4100 5250
Text Label 4100 5250 0    50   ~ 0
DTR
Text Label 4100 5350 0    50   ~ 0
RTS
Text Label 4100 5450 0    50   ~ 0
RXD
Text Label 4100 5550 0    50   ~ 0
TXD
$Comp
L Connector_Generic:Conn_01x05 J4
U 1 1 5E0FC0CF
P 4500 5450
F 0 "J4" H 4418 5025 50  0000 C CNN
F 1 "Conn_01x05" H 4418 5116 50  0000 C CNN
F 2 "Pin_Headers:Pin_Header_Straight_1x05_Pitch2.54mm" H 4500 5450 50  0001 C CNN
F 3 "~" H 4500 5450 50  0001 C CNN
	1    4500 5450
	1    0    0    1   
$EndComp
Text Label 1950 1250 2    50   ~ 0
EN
Wire Wire Line
	3150 1250 3350 1250
Text Label 3350 1250 0    50   ~ 0
IO0
Wire Wire Line
	3150 1350 3350 1350
Wire Wire Line
	3150 1550 3350 1550
Text Label 3350 1350 0    50   ~ 0
TXD
Text Label 3350 1550 0    50   ~ 0
RXD
Wire Wire Line
	8350 2200 8350 2150
Wire Wire Line
	10200 2200 10350 2200
$Comp
L Device:R_Small R15
U 1 1 5DEE829B
P 2550 750
F 0 "R15" H 2491 704 50  0000 R CNN
F 1 "0R" H 2491 795 50  0000 R CNN
F 2 "Resistors_SMD:R_0603_HandSoldering" H 2550 750 50  0001 C CNN
F 3 "~" H 2550 750 50  0001 C CNN
	1    2550 750 
	1    0    0    -1  
$EndComp
$EndSCHEMATC
