(kicad_symbol_lib (version 20211014) (generator kicad_symbol_editor)
  (symbol "TPS65185RGZR" (pin_names (offset 1.016)) (in_bom yes) (on_board yes)
    (property "Reference" "U" (id 0) (at 0 5.08 0)
      (effects (font (size 1.27 1.27)) (justify left))
    )
    (property "Value" "TPS65185RGZR" (id 1) (at 0 7.62 0)
      (effects (font (size 1.27 1.27)) (justify left))
    )
    (property "Footprint" "Texas_Instruments-TPS65185RGZR-*" (id 2) (at 0 10.16 0)
      (effects (font (size 1.27 1.27)) (justify left) hide)
    )
    (property "Datasheet" "http://www.ti.com/general/docs/lit/getliterature.tsp?genericPartNumber=TPS65185&fileType=pdf" (id 3) (at 0 12.7 0)
      (effects (font (size 1.27 1.27)) (justify left) hide)
    )
    (property "Code  JEDEC" "MO-220" (id 4) (at 0 15.24 0)
      (effects (font (size 1.27 1.27)) (justify left) hide)
    )
    (property "Component Link 1 Description" "Manufacturer URL" (id 5) (at 0 17.78 0)
      (effects (font (size 1.27 1.27)) (justify left) hide)
    )
    (property "Component Link 1 URL" "http://www.ti.com/" (id 6) (at 0 20.32 0)
      (effects (font (size 1.27 1.27)) (justify left) hide)
    )
    (property "Component Link 3 Description" "Package Specification" (id 7) (at 0 22.86 0)
      (effects (font (size 1.27 1.27)) (justify left) hide)
    )
    (property "Component Link 3 URL" "http://www.ti.com/lit/ds/symlink/sn75dp139.pdf" (id 8) (at 0 25.4 0)
      (effects (font (size 1.27 1.27)) (justify left) hide)
    )
    (property "Datasheet Version" "SLVSAQ8B" (id 9) (at 0 27.94 0)
      (effects (font (size 1.27 1.27)) (justify left) hide)
    )
    (property "Mounting Technology" "Surface Mount" (id 10) (at 0 30.48 0)
      (effects (font (size 1.27 1.27)) (justify left) hide)
    )
    (property "Package Description" "48-Pin Plastic Flat Pack, Body 7 x 7 mm, Pitch 0.5 mm" (id 11) (at 0 33.02 0)
      (effects (font (size 1.27 1.27)) (justify left) hide)
    )
    (property "Package Version" "4204101/F" (id 12) (at 0 35.56 0)
      (effects (font (size 1.27 1.27)) (justify left) hide)
    )
    (property "Rating" "Catalog" (id 13) (at 0 38.1 0)
      (effects (font (size 1.27 1.27)) (justify left) hide)
    )
    (property "Sub Family" "LCD/OLED Display Bias Solutions" (id 14) (at 0 40.64 0)
      (effects (font (size 1.27 1.27)) (justify left) hide)
    )
    (property "Topology" "Multi-Channel" (id 15) (at 0 43.18 0)
      (effects (font (size 1.27 1.27)) (justify left) hide)
    )
    (property "Vin Max V" "6" (id 16) (at 0 45.72 0)
      (effects (font (size 1.27 1.27)) (justify left) hide)
    )
    (property "Vin Min V" "3" (id 17) (at 0 48.26 0)
      (effects (font (size 1.27 1.27)) (justify left) hide)
    )
    (property "category" "IC" (id 18) (at 0 50.8 0)
      (effects (font (size 1.27 1.27)) (justify left) hide)
    )
    (property "ciiva ids" "1437778" (id 19) (at 0 53.34 0)
      (effects (font (size 1.27 1.27)) (justify left) hide)
    )
    (property "library id" "096bbff732ecf194" (id 20) (at 0 55.88 0)
      (effects (font (size 1.27 1.27)) (justify left) hide)
    )
    (property "manufacturer" "Texas Instruments" (id 21) (at 0 58.42 0)
      (effects (font (size 1.27 1.27)) (justify left) hide)
    )
    (property "package" "RGZ0048B" (id 22) (at 0 60.96 0)
      (effects (font (size 1.27 1.27)) (justify left) hide)
    )
    (property "release date" "1464576966" (id 23) (at 0 63.5 0)
      (effects (font (size 1.27 1.27)) (justify left) hide)
    )
    (property "rohs" "Yes" (id 24) (at 0 66.04 0)
      (effects (font (size 1.27 1.27)) (justify left) hide)
    )
    (property "vault revision" "B56DD3E6-C189-4A0F-AE50-9F42F0F73506" (id 25) (at 0 68.58 0)
      (effects (font (size 1.27 1.27)) (justify left) hide)
    )
    (property "imported" "yes" (id 26) (at 0 71.12 0)
      (effects (font (size 1.27 1.27)) (justify left) hide)
    )
    (property "ki_locked" "" (id 27) (at 0 0 0)
      (effects (font (size 1.27 1.27)))
    )
    (symbol "TPS65185RGZR_1_1"
      (rectangle (start 2.54 2.54) (end 33.02 -78.74)
        (stroke (width 0) (type default) (color 0 0 0 0))
        (fill (type background))
      )
      (pin passive line (at 35.56 -40.64 180) (length 2.54)
        (name "VREF" (effects (font (size 1.016 1.016))))
        (number "1" (effects (font (size 1.016 1.016))))
      )
      (pin power_in line (at 0 -35.56 0) (length 2.54)
        (name "VIN" (effects (font (size 1.016 1.016))))
        (number "10" (effects (font (size 1.016 1.016))))
      )
      (pin input line (at 0 -43.18 0) (length 2.54)
        (name "VCOM_CTRL" (effects (font (size 1.016 1.016))))
        (number "12" (effects (font (size 1.016 1.016))))
      )
      (pin power_in line (at 0 -45.72 0) (length 2.54)
        (name "VCOM_DIS" (effects (font (size 1.016 1.016))))
        (number "14" (effects (font (size 1.016 1.016))))
      )
      (pin passive line (at 0 -40.64 0) (length 2.54)
        (name "VCOM" (effects (font (size 1.016 1.016))))
        (number "15" (effects (font (size 1.016 1.016))))
      )
      (pin power_in line (at 35.56 -45.72 180) (length 2.54)
        (name "VCOM_PWR" (effects (font (size 1.016 1.016))))
        (number "16" (effects (font (size 1.016 1.016))))
      )
      (pin input clock (at 0 -50.8 0) (length 2.54)
        (name "SCL" (effects (font (size 1.016 1.016))))
        (number "17" (effects (font (size 1.016 1.016))))
      )
      (pin bidirectional line (at 0 -53.34 0) (length 2.54)
        (name "SDA" (effects (font (size 1.016 1.016))))
        (number "18" (effects (font (size 1.016 1.016))))
      )
      (pin power_in line (at 0 -30.48 0) (length 2.54)
        (name "VPOS_DIS" (effects (font (size 1.016 1.016))))
        (number "19" (effects (font (size 1.016 1.016))))
      )
      (pin open_collector line (at 0 -68.58 0) (length 2.54)
        (name "~{INT}" (effects (font (size 1.016 1.016))))
        (number "2" (effects (font (size 1.016 1.016))))
      )
      (pin input line (at 0 -58.42 0) (length 2.54)
        (name "PWRUP" (effects (font (size 1.016 1.016))))
        (number "21" (effects (font (size 1.016 1.016))))
      )
      (pin power_in line (at 35.56 -58.42 180) (length 2.54)
        (name "PBKG" (effects (font (size 1.016 1.016))))
        (number "22" (effects (font (size 1.016 1.016))))
      )
      (pin open_collector line (at 0 -66.04 0) (length 2.54)
        (name "PWR_GOOD" (effects (font (size 1.016 1.016))))
        (number "23" (effects (font (size 1.016 1.016))))
      )
      (pin power_in line (at 35.56 0 180) (length 2.54)
        (name "VIN_P" (effects (font (size 1.016 1.016))))
        (number "24" (effects (font (size 1.016 1.016))))
      )
      (pin power_in line (at 35.56 -2.54 180) (length 2.54)
        (name "VN_SW" (effects (font (size 1.016 1.016))))
        (number "25" (effects (font (size 1.016 1.016))))
      )
      (pin input line (at 35.56 -5.08 180) (length 2.54)
        (name "VN" (effects (font (size 1.016 1.016))))
        (number "26" (effects (font (size 1.016 1.016))))
      )
      (pin power_in line (at 35.56 -10.16 180) (length 2.54)
        (name "VEE_IN" (effects (font (size 1.016 1.016))))
        (number "27" (effects (font (size 1.016 1.016))))
      )
      (pin power_in line (at 35.56 -15.24 180) (length 2.54)
        (name "VEE_DRV" (effects (font (size 1.016 1.016))))
        (number "28" (effects (font (size 1.016 1.016))))
      )
      (pin power_in line (at 35.56 -17.78 180) (length 2.54)
        (name "VEE_DIS" (effects (font (size 1.016 1.016))))
        (number "29" (effects (font (size 1.016 1.016))))
      )
      (pin power_in line (at 35.56 -27.94 180) (length 2.54)
        (name "VNEG" (effects (font (size 1.016 1.016))))
        (number "3" (effects (font (size 1.016 1.016))))
      )
      (pin power_in line (at 35.56 -12.7 180) (length 2.54)
        (name "VEE_D" (effects (font (size 1.016 1.016))))
        (number "30" (effects (font (size 1.016 1.016))))
      )
      (pin input line (at 35.56 -20.32 180) (length 2.54)
        (name "VEE_FB" (effects (font (size 1.016 1.016))))
        (number "31" (effects (font (size 1.016 1.016))))
      )
      (pin power_in line (at 35.56 -76.2 180) (length 2.54)
        (name "PGND2" (effects (font (size 1.016 1.016))))
        (number "32" (effects (font (size 1.016 1.016))))
      )
      (pin input line (at 0 -20.32 0) (length 2.54)
        (name "VDDH_FB" (effects (font (size 1.016 1.016))))
        (number "33" (effects (font (size 1.016 1.016))))
      )
      (pin power_in line (at 0 -12.7 0) (length 2.54)
        (name "VDDH_D" (effects (font (size 1.016 1.016))))
        (number "34" (effects (font (size 1.016 1.016))))
      )
      (pin power_in line (at 0 -17.78 0) (length 2.54)
        (name "VDDH_DIS" (effects (font (size 1.016 1.016))))
        (number "35" (effects (font (size 1.016 1.016))))
      )
      (pin power_in line (at 0 -15.24 0) (length 2.54)
        (name "VDDH_DRV" (effects (font (size 1.016 1.016))))
        (number "36" (effects (font (size 1.016 1.016))))
      )
      (pin power_in line (at 0 -10.16 0) (length 2.54)
        (name "VDDH_IN" (effects (font (size 1.016 1.016))))
        (number "37" (effects (font (size 1.016 1.016))))
      )
      (pin power_in line (at 35.56 -25.4 180) (length 2.54)
        (name "VNEG_IN" (effects (font (size 1.016 1.016))))
        (number "4" (effects (font (size 1.016 1.016))))
      )
      (pin power_in line (at 0 0 0) (length 2.54)
        (name "VB_SW" (effects (font (size 1.016 1.016))))
        (number "40" (effects (font (size 1.016 1.016))))
      )
      (pin power_in line (at 35.56 -73.66 180) (length 2.54)
        (name "PGND1" (effects (font (size 1.016 1.016))))
        (number "41" (effects (font (size 1.016 1.016))))
      )
      (pin input line (at 0 -5.08 0) (length 2.54)
        (name "VB" (effects (font (size 1.016 1.016))))
        (number "42" (effects (font (size 1.016 1.016))))
      )
      (pin power_in line (at 0 -25.4 0) (length 2.54)
        (name "VPOS_IN" (effects (font (size 1.016 1.016))))
        (number "43" (effects (font (size 1.016 1.016))))
      )
      (pin power_in line (at 0 -27.94 0) (length 2.54)
        (name "VPOS" (effects (font (size 1.016 1.016))))
        (number "44" (effects (font (size 1.016 1.016))))
      )
      (pin power_in line (at 0 -76.2 0) (length 2.54)
        (name "VIN3P3" (effects (font (size 1.016 1.016))))
        (number "45" (effects (font (size 1.016 1.016))))
      )
      (pin power_in line (at 0 -73.66 0) (length 2.54)
        (name "V3P3" (effects (font (size 1.016 1.016))))
        (number "46" (effects (font (size 1.016 1.016))))
      )
      (pin input line (at 35.56 -53.34 180) (length 2.54)
        (name "TS" (effects (font (size 1.016 1.016))))
        (number "47" (effects (font (size 1.016 1.016))))
      )
      (pin power_in line (at 35.56 -68.58 180) (length 2.54)
        (name "AGND2" (effects (font (size 1.016 1.016))))
        (number "48" (effects (font (size 1.016 1.016))))
      )
      (pin passive line (at 35.56 -63.5 180) (length 2.54)
        (name "EP" (effects (font (size 1.016 1.016))))
        (number "49" (effects (font (size 1.016 1.016))))
      )
      (pin input line (at 0 -60.96 0) (length 2.54)
        (name "WAKEUP" (effects (font (size 1.016 1.016))))
        (number "5" (effects (font (size 1.016 1.016))))
      )
      (pin power_in line (at 35.56 -71.12 180) (length 2.54)
        (name "DGND" (effects (font (size 1.016 1.016))))
        (number "6" (effects (font (size 1.016 1.016))))
      )
      (pin passive line (at 35.56 -35.56 180) (length 2.54)
        (name "INT_LDO" (effects (font (size 1.016 1.016))))
        (number "7" (effects (font (size 1.016 1.016))))
      )
      (pin power_in line (at 35.56 -66.04 180) (length 2.54)
        (name "AGND1" (effects (font (size 1.016 1.016))))
        (number "8" (effects (font (size 1.016 1.016))))
      )
      (pin power_in line (at 35.56 -30.48 180) (length 2.54)
        (name "VNEG_DIS" (effects (font (size 1.016 1.016))))
        (number "9" (effects (font (size 1.016 1.016))))
      )
    )
    (symbol "TPS65185RGZR_2_1"
      (rectangle (start 2.54 2.54) (end 15.24 -7.62)
        (stroke (width 0) (type default) (color 0 0 0 0))
        (fill (type background))
      )
      (pin passive line (at 0 0 0) (length 2.54)
        (name "NC" (effects (font (size 1.016 1.016))))
        (number "11" (effects (font (size 1.016 1.016))))
      )
      (pin passive line (at 0 -2.54 0) (length 2.54)
        (name "NC" (effects (font (size 1.016 1.016))))
        (number "13" (effects (font (size 1.016 1.016))))
      )
      (pin passive line (at 0 -5.08 0) (length 2.54)
        (name "NC" (effects (font (size 1.016 1.016))))
        (number "20" (effects (font (size 1.016 1.016))))
      )
      (pin passive line (at 17.78 0 180) (length 2.54)
        (name "NC" (effects (font (size 1.016 1.016))))
        (number "38" (effects (font (size 1.016 1.016))))
      )
      (pin passive line (at 17.78 -2.54 180) (length 2.54)
        (name "NC" (effects (font (size 1.016 1.016))))
        (number "39" (effects (font (size 1.016 1.016))))
      )
    )
  )
)
